{
    "Title": "Seasonvar.RU",
    "ListSerials": "List Serials",
    "LatestSerials": "Latest Serials",
    "SeasonTitle": "Season",
    "ABCSelect_EN": "English",
    "ABCSelect_RU": "Russian",
    "MissingAPIKeyTitle": "Error",
    "MissingAPIKeyMessage": "Missing API Key. Open settings and input a valid key. Don't forget to activate IP on the seasonvar.ru website.",
    "Search": "Search",
    "SearchPrompt": "Search for the serial?",
    "EmptyResultTitle": "Empty result",
    "EmptyResultMessage": "Nothing has been found. Please try again",
    "AddBookmarkTitle": "Add to bookmark list.",
    "AddBookmarkMessage": " can be added to you bookmarks to make it easier to find later.",
    "BookmarkList": "Bookmark List",
    "BookmarkListAddedMessage": "This show has been added to your bookmarks",
    "BookmarkListClearTitle": "Clear ALL",
    "BookmarkListClearMessage": "CAUTION! This will clear your entire bookmark list!",
    "BookmarkListClearedMessage": "Your bookmark list has been cleared.",
    "BookmarkListEmptyMessage": "You don't have saved bookmarks",
    "UnauthorizedTitle": "Access Denied",
    "UnauthorizedMessage": "Unauthorized user",
    "IpBlockedTitle": "Access Denied",
    "IpBlockedMessage": "Your IP is not active. Open seasonvar.ru website and activate IP for your account.",
    "Translation": "Translation: %s"
}
